,loss,val_loss
0,0.00722260175269006,0.010687444359064102
1,0.007072376994129826,0.010518904775381088
2,0.007053273327759122,0.010428108274936676
3,0.007017745610117294,0.009659407660365105
4,0.006935005078832372,0.011243456974625587
5,0.004978880864807502,0.010378971695899963
6,0.003525791146798865,0.009647641330957413
7,0.002144008583450617,0.006707991473376751
8,0.0015014867281765722,0.007478116080164909
9,0.0011066967011772858,0.007670638617128134
10,0.0008544238176119068,0.006586725823581219
11,0.000675194959636551,0.0058834608644247055
12,0.0005424672252578644,0.008004332892596722
13,0.0004737711380419313,0.005234840791672468
14,0.00042144589727470544,0.0061847129836678505
15,0.0003870964823668352,0.009362069889903069
16,0.0003540115738684197,0.0057359677739441395
17,0.00034211384844375076,0.007263331674039364
18,0.00029716281386717045,0.006125100422650576
19,0.0002816274954305497,0.005371397826820612
20,0.00026738005224890925,0.006235463544726372
21,0.00025396860612438596,0.006337972357869148
22,0.00025505414707028174,0.007216389290988445
23,0.0002246000388194921,0.005595282651484013
24,0.00022937045647974575,0.005901522468775511
25,0.00021591851129383176,0.005270972847938538
26,0.0001999678968641377,0.005507790949195623
27,0.0002029413577443967,0.007100313901901245
28,0.0001872095913729644,0.006017685867846012
29,0.00020431836217924454,0.0057387943379580975
30,0.00015938863223590333,0.006915994454175234
31,0.00017634579130613033,0.006874816957861185
32,0.00017722809735794002,0.005621267948299646
33,0.00020042445935236484,0.006012157071381807
34,0.0001196328298882354,0.0059729586355388165
35,0.0001591031437707075,0.006100702099502087
36,0.00016118516957270592,0.005818517412990332
37,0.0001569204117586073,0.006075756624341011
38,0.00014001688373841927,0.006073973141610622
39,0.00014762911778506158,0.0063936542719602585
40,0.00015143721672402692,0.005887590814381838
41,0.00013531553278882502,0.006709940265864134
42,0.00015115505435101353,0.0060953302308917046
43,0.0001259161461685661,0.00677684647962451
44,0.0001259719484823309,0.009626226499676704
45,0.0008132066817364338,0.006414317060261965
46,0.00010623587468423547,0.006254392210394144
47,9.024538803293808e-05,0.005881750024855137
48,0.00012325170531247976,0.005524055100977421
49,0.00012562876625625942,0.0051934076473116875
50,0.00013371130146892383,0.005659973248839378
51,0.0001413758575679092,0.006842273287475109
52,0.00013392392200149938,0.005713297054171562
53,0.00013351514025616523,0.00598601158708334
54,0.00011841362317436593,0.006229768041521311
55,0.00016059928897893078,0.005953053943812847
56,8.557813155048525e-05,0.005624210927635431
57,0.00011986641554994929,0.006509077735245228
58,0.00010903108401865207,0.00551240798085928
59,0.00010786914108241158,0.005956789944320917
60,0.00013518838216202336,0.005916928872466087
61,0.00010041318163982113,0.006155513692647219
62,0.00011384666793627429,0.005901175085455179
63,0.00012637873214609667,0.005635419394820929
64,8.214201784930576e-05,0.006347475107759237
65,0.00012857015987434277,0.005629378836601973
66,9.958439461432936e-05,0.005239222664386034
67,8.558925625825195e-05,0.007710563018918037
68,0.000125639097480561,0.0066793630830943584
69,8.821835734634686e-05,0.012345006689429283
70,0.0002941532896018629,0.00617636926472187
71,5.8502539874089684e-05,0.006126973312348127
72,8.892663149193499e-05,0.005865512881428003
73,0.00012137437332269381,0.005833168979734182
74,0.0001204187946063084,0.00604073703289032
75,7.489696032719284e-05,0.005846008192747831
76,0.00011782314287061879,0.00588418822735548
77,9.893685263330896e-05,0.006081636995077133
78,8.101703135974853e-05,0.0060846940614283085
79,0.0001414316504858605,0.006248556077480316
80,6.890041852341393e-05,0.005909936968237162
81,0.00013366605854826468,0.005782208405435085
82,6.618741149757649e-05,0.005964092910289764
83,9.795254211553242e-05,0.005796469748020172
84,0.0001051535465905513,0.006189693696796894
85,9.635586390623845e-05,0.0060767983086407185
86,6.967650385080746e-05,0.006468032952398062
87,9.767228471523795e-05,0.005942066200077534
88,0.00010393515517427771,0.006098856218159199
89,8.10531185754773e-05,0.0057954792864620686
90,8.818671187018605e-05,0.006089640781283379
91,0.00010034759782565394,0.005903544370085001
92,7.039869443724202e-05,0.005168436095118523
93,0.00010966254132870053,0.0060462914407253265
94,7.343269889250624e-05,0.005783033091574907
95,0.00012939765027454475,0.0063837384805083275
96,5.9553797247779e-05,0.005977894179522991
97,0.00011936154868527149,0.005994012579321861
98,5.5904296527944315e-05,0.006036477629095316
99,9.01740965167908e-05,0.008025756105780602
100,9.748832656168503e-05,0.005853996146470308
101,8.570142848013947e-05,0.0061339158564805984
102,0.00011790724978259659,0.006238875444978476
103,5.1874239618993096e-05,0.0056794798001646996
104,8.326994904378687e-05,0.006142033729702234
105,9.567367920459773e-05,0.005858306307345629
106,6.57871878578707e-05,0.005866562016308308
107,0.00013972327036509654,0.005958606489002705
108,5.010160964773898e-05,0.00606599310413003
109,0.00010410693205323434,0.006097584031522274
110,5.762972353937448e-05,0.006490708794444799
111,0.00011445121306565004,0.006155879702419043
112,4.9365708213719724e-05,0.0061105783097445965
113,0.00012709590350949961,0.0061326478607952595
114,5.487315402090931e-05,0.0060684266500175
115,8.41690998013178e-05,0.007276437245309353
116,8.062009729811172e-05,0.006003982853144407
117,7.122224494434981e-05,0.00934998132288456
118,0.0001692844892414722,0.006270325742661953
119,3.658310086399633e-05,0.00595947727560997
120,0.00010180766233989946,0.00600152462720871
121,5.238026392740698e-05,0.006210592109709978
122,0.00010010122420713029,0.005973277613520622
123,4.742562635356022e-05,0.00582516985014081
124,0.00011631263149329493,0.006012593861669302
125,4.7859154546685417e-05,0.005579705815762281
126,0.00010376217031640788,0.0059966095723211765
127,8.937695459933464e-05,0.005831207614392042
128,4.824590575722813e-05,0.00598583510145545
129,0.00012016858056011128,0.005820687860250473
130,4.326383874969123e-05,0.006015624850988388
131,0.00011039471193107224,0.0058462913148105145
132,4.811728642041994e-05,0.005915989633649588
133,0.000110026175204301,0.00591669324785471
134,4.7173961236534424e-05,0.005693529266864061
135,0.00013467331140045986,0.005989839788526297
136,4.542343330249254e-05,0.005855369381606579
137,7.158468263849845e-05,0.006482793018221855
138,6.035640426038794e-05,0.0062345657497644424
139,9.693106381817977e-05,0.005877344403415918
140,8.617663428440653e-05,0.005994569975882769
141,4.797899761114309e-05,0.006092234514653683
142,6.893150368415125e-05,0.006315833423286676
143,9.880266965103193e-05,0.0061453552916646
144,5.623345923979673e-05,0.006239466369152069
145,8.334682272466244e-05,0.005864288657903671
146,6.403883258752232e-05,0.006437214091420174
147,7.051162818929788e-05,0.005993518978357315
148,7.379022369788874e-05,0.008368737995624542
149,7.163979221704007e-05,0.005949551705271006
150,7.60856679687255e-05,0.006051021162420511
151,9.755522917971862e-05,0.005929738748818636
152,3.98939847243948e-05,0.006180834956467152
153,9.7354448706344e-05,0.005794872529804707
154,6.42545749396183e-05,0.005646828096359968
155,0.00014898003054824956,0.00609339214861393
156,2.9872133651233074e-05,0.005797961726784706
157,7.238298488017112e-05,0.0059839338064193726
158,9.577715002335732e-05,0.0061150724068284035
159,5.222459249605302e-05,0.005621388088911772
160,7.258378476692165e-05,0.005602688994258642
161,9.329821718020984e-05,0.006270471960306168
162,5.275579017026666e-05,0.005992889404296875
163,4.243281327203476e-05,0.006515404209494591
164,0.00011298712794352086,0.00616417545825243
165,4.556212042172557e-05,0.006331558804959059
166,0.00011015778848902168,0.0059188855811953545
167,5.7187860516124773e-05,0.006391182541847229
168,5.541394738206089e-05,0.005946182645857334
169,9.746582108615797e-05,0.005828681401908398
170,5.1480989820321215e-05,0.006007267627865076
171,0.00010183850673743392,0.006205602549016476
172,3.778894348698768e-05,0.005933892447501421
173,6.667745321919884e-05,0.006000738590955734
174,8.452326231830959e-05,0.005971791688352823
175,3.946751413985591e-05,0.005359864328056574
176,7.677800594770155e-05,0.005978731904178858
177,7.034871807545152e-05,0.006174899637699127
178,4.9613201102081704e-05,0.006288915406912565
179,9.682270530279811e-05,0.005932989995926619
180,7.210443396794231e-05,0.006033425685018301
181,4.8943785639427275e-05,0.006189935375005007
182,9.240087509825193e-05,0.006071717943996191
183,4.027876268045276e-05,0.0058762552216649055
184,5.527174122316452e-05,0.005867363419383764
185,6.8531633813264e-05,0.018743861466646194
186,0.00022660724626117308,0.0058196368627250195
187,3.575588959158287e-05,0.0059159002266824245
188,5.05439430480826e-05,0.006124011240899563
189,6.676429856926931e-05,0.006238139700144529
190,0.0001031079708564371,0.005983802955597639
191,4.126724943568599e-05,0.006112941075116396
192,0.0002654795925219404,0.005923176649957895
193,2.8487882324132363e-05,0.006208618637174368
194,5.2669163807881376e-05,0.005856305826455355
195,9.09302272940118e-05,0.006035227794200182
196,3.8745214224613535e-05,0.006753386929631233
197,0.0001270734125325995,0.006280314177274704
198,3.8902357268667465e-05,0.006205853074789047
199,4.421458491963293e-05,0.006235915701836348
200,8.829583630453271e-05,0.005945504177361727
201,6.771963804691384e-05,0.006391232833266258
202,4.9284827760352955e-05,0.006100825499743223
203,4.2696169948201764e-05,0.005984617862850428
204,0.00014387450064184506,0.00621037045493722
205,3.3026594779462544e-05,0.006520901806652546
206,0.00010180339608752343,0.006099937949329615
207,5.104345533998838e-05,0.006796162109822035
208,4.746253368804376e-05,0.006249532103538513
209,8.09933490765961e-05,0.006186865270137787
210,4.326113247725622e-05,0.005865975748747587
211,0.00010393288381866091,0.005870676599442959
212,9.093703568210969e-05,0.006306248251348734
213,4.64402624202892e-05,0.006388814654201269
214,4.734115243600081e-05,0.0060781859792768955
215,9.820682699871823e-05,0.005889948923140764
216,4.328306002897993e-05,0.006352398544549942
217,9.856890704302776e-05,0.0061208768747746944
218,4.187929509217382e-05,0.0059769488871097565
219,9.149398670206524e-05,0.0061682891100645065
220,4.755585171457296e-05,0.006082707084715366
221,8.084106687457023e-05,0.0063726650550961494
222,5.7739242920496405e-05,0.00636008707806468
223,7.687862464732362e-05,0.005796683486551046
224,5.675739397789148e-05,0.006006703712046146
225,4.379282905719603e-05,0.007690833881497383
226,0.00013283735835715834,0.0060998122207820415
227,4.830408067114158e-05,0.005838682875037193
228,6.466437310401595e-05,0.006250964943319559
229,0.00010893674140635616,0.006201715208590031
230,3.630614785145332e-05,0.006089032161980867
231,9.926394953530118e-05,0.006058053579181433
232,4.1169749158601316e-05,0.0060721454210579395
233,9.774609095048286e-05,0.006105454172939062
234,4.34044864252554e-05,0.0061475252732634544
235,4.572324557728616e-05,0.006556074135005474
236,0.00011805858533133211,0.006141291465610266
237,4.997755670455306e-05,0.0059796469286084175
238,3.670693787116345e-05,0.005895535461604595
239,9.690265337233145e-05,0.005963115952908993
240,7.201297391435746e-05,0.006224632728844881
241,6.134981438382524e-05,0.005923802964389324
242,6.890022592362319e-05,0.006175912916660309
243,5.391589855975138e-05,0.005908434744924307
244,0.00011576722198712335,0.006182561162859201
245,5.013185749875121e-05,0.005997947417199612
246,4.794438700449192e-05,0.006242142058908939
247,9.754483205343382e-05,0.006082931999117136
248,3.3746828485467796e-05,0.0061486572958528996
249,0.00014338508909707263,0.00581416254863143
250,3.7080432925148656e-05,0.005971901584416628
251,7.024860263280555e-05,0.00594411650672555
252,4.7321189525799144e-05,0.0060319374315440655
253,8.262820699435016e-05,0.006282264366745949
254,5.2785708866948054e-05,0.006283611990511417
255,5.4826102347114236e-05,0.006190198473632336
256,6.79246202322155e-05,0.006852792575955391
257,6.236724689127893e-05,0.005967958364635706
258,6.76682703735748e-05,0.006106771994382143
259,8.328676403032067e-05,0.006472505163401365
260,5.951314405966852e-05,0.006137528922408819
261,3.6685352996424394e-05,0.006117712240666151
262,0.00010438590581187463,0.0060997591353952885
263,3.417625840981781e-05,0.006019149906933308
264,9.369613181419758e-05,0.0062853386625647545
265,4.965081928919477e-05,0.0060691824182868
266,3.108368358738069e-05,0.006090953014791012
267,0.00011177554192769279,0.006014710292220116
268,3.303128702074781e-05,0.006041928194463253
269,5.285508845573059e-05,0.005898940842598677
270,9.303945785113049e-05,0.006051092874258757
271,3.4261119422607656e-05,0.007002194877713919
272,0.00011003731906225825,0.00600150041282177
273,3.16969420155699e-05,0.005986411590129137
274,9.677690291521895e-05,0.006149160210043192
275,4.810420747128783e-05,0.006070136092603207
276,7.213256442867316e-05,0.005891157314181328
277,3.648356752195969e-05,0.0060373288579285145
278,7.483313197220936e-05,0.006086369045078754
279,8.282117091634495e-05,0.005989287979900837
280,3.8076617295321324e-05,0.00629718042910099
281,4.275768248723817e-05,0.006390406284481287
282,8.348810462531172e-05,0.006082888692617416
283,5.9820978365506984e-05,0.005850912071764469
284,5.4834016924699134e-05,0.005943824537098408
285,4.2019296359994554e-05,0.005949598271399736
286,0.00010102375732231797,0.006362781394273043
287,4.668369631606126e-05,0.006132320500910282
288,8.169498843345724e-05,0.006039817351847887
289,3.816565463015117e-05,0.0061226896941661835
290,0.00012478235179981393,0.006582748144865036
291,4.8098226608349326e-05,0.0060224891640245914
292,7.366803735621938e-05,0.006204042583703995
293,4.6266293986859766e-05,0.006168415304273367
294,8.012259320518575e-05,0.0060145193710923195
295,3.726754483544059e-05,0.006204643286764622
296,8.198851583899088e-05,0.006173455156385899
297,3.326055534084253e-05,0.00600738450884819
298,0.0001140063025999598,0.006091180257499218
299,4.671113230135654e-05,0.00592500576749444
300,4.035711522470029e-05,0.006025692448019981
301,0.00011811596410951236,0.005897110793739557
302,3.1355380631028026e-05,0.0058395275846123695
303,4.815365204966754e-05,0.005951864644885063
304,0.00014835743276908603,0.006099320016801357
305,5.4384578164305934e-05,0.006180061958730221
306,5.553736241209551e-05,0.006075857672840357
307,7.46067405077235e-05,0.006565895862877369
308,5.870828361450218e-05,0.006919341627508402
309,0.0001796504862720797,0.0059661706909537315
310,2.5799543532917305e-05,0.0059680272825062275
311,7.609150658537746e-05,0.007921685464680195
312,9.399759251300794e-05,0.00611376017332077
313,5.38228002674738e-05,0.006011888850480318
314,0.00010882229925480711,0.005893791560083628
315,3.640344655708477e-05,0.006619252264499664
316,0.0001208344265395869,0.006118010263890028
317,3.5031477039440736e-05,0.006213739980012178
318,6.676275037637499e-05,0.006151021923869848
319,6.1018000709252905e-05,0.006278099026530981
320,4.9708815674049855e-05,0.006724104750901461
321,4.373167138190265e-05,0.006694247480481863
322,8.073864903824525e-05,0.006222967058420181
323,9.856020827002527e-05,0.006068657152354717
324,2.9705497602580127e-05,0.0060511003248393536
325,4.368961755719048e-05,0.0058221351355314255
326,8.281827701984679e-05,0.005816556978970766
327,3.302846300884328e-05,0.006025311537086964
328,8.866651455233596e-05,0.006090223323553801
329,3.788154860991697e-05,0.006444495636969805
330,3.417270103652444e-05,0.006518538109958172
331,9.668644915867858e-05,0.006110790651291609
332,3.2425343256815945e-05,0.006036250852048397
333,9.855873031397766e-05,0.006280733272433281
334,7.889127562144379e-05,0.0060135298408567905
335,4.233580366739619e-05,0.006292514503002167
336,6.0094408636794606e-05,0.006004848051816225
337,3.534347241674835e-05,0.006093173287808895
338,9.095045725113622e-05,0.0060592517256736755
339,3.336421201235854e-05,0.006296007428318262
340,5.041526838074743e-05,0.006137159187346697
341,7.501094561636141e-05,0.006121508311480284
342,4.969263293425131e-05,0.006227144040167332
343,4.304712584854443e-05,0.005917116533964872
