2021-02-19 12:17:30.466663: I tensorflow/core/platform/cpu_feature_guard.cc:141] Your CPU supports instructions that this TensorFlow binary was not compiled to use: AVX2 FMA
2021-02-19 12:17:30.543791: I tensorflow/stream_executor/cuda/cuda_gpu_executor.cc:897] successful NUMA node read from SysFS had negative value (-1), but there must be at least one NUMA node, so returning NUMA node zero
2021-02-19 12:17:30.544194: I tensorflow/core/common_runtime/gpu/gpu_device.cc:1405] Found device 0 with properties: 
name: GeForce GTX 1080 Ti major: 6 minor: 1 memoryClockRate(GHz): 1.582
pciBusID: 0000:02:00.0
totalMemory: 10.91GiB freeMemory: 10.75GiB
2021-02-19 12:17:30.544206: I tensorflow/core/common_runtime/gpu/gpu_device.cc:1484] Adding visible gpu devices: 0
2021-02-19 12:17:30.725570: I tensorflow/core/common_runtime/gpu/gpu_device.cc:965] Device interconnect StreamExecutor with strength 1 edge matrix:
2021-02-19 12:17:30.725599: I tensorflow/core/common_runtime/gpu/gpu_device.cc:971]      0 
2021-02-19 12:17:30.725605: I tensorflow/core/common_runtime/gpu/gpu_device.cc:984] 0:   N 
2021-02-19 12:17:30.725747: I tensorflow/core/common_runtime/gpu/gpu_device.cc:1097] Created TensorFlow device (/job:localhost/replica:0/task:0/device:GPU:0 with 10398 MB memory) -> physical GPU (device: 0, name: GeForce GTX 1080 Ti, pci bus id: 0000:02:00.0, compute capability: 6.1)
Using TensorFlow backend.
MODEL NUMBER 0
(712588, 3)
(712588, 400)
1425940 712587
real consume: (1425140,)
predict: (1425139,)
F1 before: 0.017241379310344827
EA before: -0.13241870725243077
MAE before: 23.760671909521992
SAE before: 0.27298539988533777
SAE delt:  3.91900857862121
