2021-02-20 08:41:53.845058: I tensorflow/core/platform/cpu_feature_guard.cc:141] Your CPU supports instructions that this TensorFlow binary was not compiled to use: AVX2 FMA
2021-02-20 08:41:53.941612: I tensorflow/stream_executor/cuda/cuda_gpu_executor.cc:897] successful NUMA node read from SysFS had negative value (-1), but there must be at least one NUMA node, so returning NUMA node zero
2021-02-20 08:41:53.942013: I tensorflow/core/common_runtime/gpu/gpu_device.cc:1405] Found device 0 with properties: 
name: GeForce GTX 1080 Ti major: 6 minor: 1 memoryClockRate(GHz): 1.582
pciBusID: 0000:02:00.0
totalMemory: 10.91GiB freeMemory: 10.75GiB
2021-02-20 08:41:53.942025: I tensorflow/core/common_runtime/gpu/gpu_device.cc:1484] Adding visible gpu devices: 0
2021-02-20 08:41:54.120431: I tensorflow/core/common_runtime/gpu/gpu_device.cc:965] Device interconnect StreamExecutor with strength 1 edge matrix:
2021-02-20 08:41:54.120462: I tensorflow/core/common_runtime/gpu/gpu_device.cc:971]      0 
2021-02-20 08:41:54.120469: I tensorflow/core/common_runtime/gpu/gpu_device.cc:984] 0:   N 
2021-02-20 08:41:54.120628: I tensorflow/core/common_runtime/gpu/gpu_device.cc:1097] Created TensorFlow device (/job:localhost/replica:0/task:0/device:GPU:0 with 10398 MB memory) -> physical GPU (device: 0, name: GeForce GTX 1080 Ti, pci bus id: 0000:02:00.0, compute capability: 6.1)
Using TensorFlow backend.
MODEL NUMBER 0
(712588, 3)
(712588, 400)
1425940 712588
real consume: (1425140,)
predict: (1425141,)
F1 before: 0.017543859649122806
EA before: -0.12487612634282708
MAE before: 23.60050645438016
SAE before: 0.26435999782436503
SAE delt:  23.27901392692553
